<svg xmlns="http://www.w3.org/2000/svg" width="16.573" height="13.007" viewBox="0 0 16.573 13.007">
  <path id="Path_10160" data-name="Path 10160" d="M-4872,3645.852l4.273,4.274,1.727-1.727,9.159-9.159" transform="translate(4872.707 -3638.533)" fill="none" stroke="#fff" stroke-width="2"/>
</svg>
